\headcommand {\slideentry {0}{0}{1}{1/1}{}{0}}
\headcommand {\beamer@framepages {1}{1}}
\headcommand {\slideentry {0}{0}{2}{2/4}{}{0}}
\headcommand {\beamer@framepages {2}{4}}
\headcommand {\slideentry {0}{0}{3}{5/7}{}{0}}
\headcommand {\beamer@framepages {5}{7}}
\headcommand {\slideentry {0}{0}{4}{8/8}{}{0}}
\headcommand {\beamer@framepages {8}{8}}
\headcommand {\slideentry {0}{0}{5}{9/9}{}{0}}
\headcommand {\beamer@framepages {9}{9}}
\headcommand {\slideentry {0}{0}{6}{10/10}{}{0}}
\headcommand {\beamer@framepages {10}{10}}
\headcommand {\slideentry {0}{0}{7}{11/11}{}{0}}
\headcommand {\beamer@framepages {11}{11}}
\headcommand {\slideentry {0}{0}{8}{12/12}{}{0}}
\headcommand {\beamer@framepages {12}{12}}
\headcommand {\slideentry {0}{0}{9}{13/13}{}{0}}
\headcommand {\beamer@framepages {13}{13}}
\headcommand {\slideentry {0}{0}{10}{14/14}{}{0}}
\headcommand {\beamer@framepages {14}{14}}
\headcommand {\slideentry {0}{0}{11}{15/15}{}{0}}
\headcommand {\beamer@framepages {15}{15}}
\headcommand {\slideentry {0}{0}{12}{16/18}{}{0}}
\headcommand {\beamer@framepages {16}{18}}
\headcommand {\slideentry {0}{0}{13}{19/19}{}{0}}
\headcommand {\beamer@framepages {19}{19}}
\headcommand {\slideentry {0}{0}{14}{20/20}{}{0}}
\headcommand {\beamer@framepages {20}{20}}
\headcommand {\slideentry {0}{0}{15}{21/21}{}{0}}
\headcommand {\beamer@framepages {21}{21}}
\headcommand {\slideentry {0}{0}{16}{22/23}{}{0}}
\headcommand {\beamer@framepages {22}{23}}
\headcommand {\slideentry {0}{0}{17}{24/24}{}{0}}
\headcommand {\beamer@framepages {24}{24}}
\headcommand {\slideentry {0}{0}{18}{25/25}{}{0}}
\headcommand {\beamer@framepages {25}{25}}
\headcommand {\slideentry {0}{0}{19}{26/26}{}{0}}
\headcommand {\beamer@framepages {26}{26}}
\headcommand {\slideentry {0}{0}{20}{27/27}{}{0}}
\headcommand {\beamer@framepages {27}{27}}
\headcommand {\slideentry {0}{0}{21}{28/28}{}{0}}
\headcommand {\beamer@framepages {28}{28}}
\headcommand {\slideentry {0}{0}{22}{29/29}{}{0}}
\headcommand {\beamer@framepages {29}{29}}
\headcommand {\slideentry {0}{0}{23}{30/30}{}{0}}
\headcommand {\beamer@framepages {30}{30}}
\headcommand {\slideentry {0}{0}{24}{31/31}{}{0}}
\headcommand {\beamer@framepages {31}{31}}
\headcommand {\slideentry {0}{0}{25}{32/32}{}{0}}
\headcommand {\beamer@framepages {32}{32}}
\headcommand {\slideentry {0}{0}{26}{33/33}{}{0}}
\headcommand {\beamer@framepages {33}{33}}
\headcommand {\slideentry {0}{0}{27}{34/34}{}{0}}
\headcommand {\beamer@framepages {34}{34}}
\headcommand {\slideentry {0}{0}{28}{35/35}{}{0}}
\headcommand {\beamer@framepages {35}{35}}
\headcommand {\slideentry {0}{0}{29}{36/36}{}{0}}
\headcommand {\beamer@framepages {36}{36}}
\headcommand {\slideentry {0}{0}{30}{37/38}{}{0}}
\headcommand {\beamer@framepages {37}{38}}
\headcommand {\slideentry {0}{0}{31}{39/39}{}{0}}
\headcommand {\beamer@framepages {39}{39}}
\headcommand {\slideentry {0}{0}{32}{40/40}{}{0}}
\headcommand {\beamer@framepages {40}{40}}
\headcommand {\slideentry {0}{0}{33}{41/42}{}{0}}
\headcommand {\beamer@framepages {41}{42}}
\headcommand {\slideentry {0}{0}{34}{43/43}{}{0}}
\headcommand {\beamer@framepages {43}{43}}
\headcommand {\slideentry {0}{0}{35}{44/47}{}{0}}
\headcommand {\beamer@framepages {44}{47}}
\headcommand {\slideentry {0}{0}{36}{48/48}{}{0}}
\headcommand {\beamer@framepages {48}{48}}
\headcommand {\slideentry {0}{0}{37}{49/49}{}{0}}
\headcommand {\beamer@framepages {49}{49}}
\headcommand {\slideentry {0}{0}{38}{50/50}{}{0}}
\headcommand {\beamer@framepages {50}{50}}
\headcommand {\slideentry {0}{0}{39}{51/51}{}{0}}
\headcommand {\beamer@framepages {51}{51}}
\headcommand {\slideentry {0}{0}{40}{52/53}{}{0}}
\headcommand {\beamer@framepages {52}{53}}
\headcommand {\beamer@partpages {1}{53}}
\headcommand {\beamer@subsectionpages {1}{53}}
\headcommand {\beamer@sectionpages {1}{53}}
\headcommand {\beamer@documentpages {53}}
\headcommand {\gdef \inserttotalframenumber {40}}
