This is pdfTeX, Version 3.14159265-2.6-1.40.20 (TeX Live 2019/MacPorts 2019.50896_2) (preloaded format=pdflatex 2019.11.4)  15 JUN 2020 14:40
entering extended mode
 restricted \write18 enabled.
 %&-line parsing enabled.
**DA_prob.tex
(./DA_prob.tex
LaTeX2e <2018-12-01>
(/opt/local/share/texmf-texlive/tex/latex/beamer/beamer.cls
Document Class: beamer 2018/12/02 v3.55 A class for typesetting presentations
(/opt/local/share/texmf-texlive/tex/latex/beamer/beamerbasemodes.sty
(/opt/local/share/texmf-texlive/tex/latex/etoolbox/etoolbox.sty
Package: etoolbox 2018/08/19 v2.5f e-TeX tools for LaTeX (JAW)
\etb@tempcnta=\count80
)
\beamer@tempbox=\box27
\beamer@tempcount=\count81
\c@beamerpauses=\count82

(/opt/local/share/texmf-texlive/tex/latex/beamer/beamerbasedecode.sty
\beamer@slideinframe=\count83
\beamer@minimum=\count84
)
\beamer@commentbox=\box28
\beamer@modecount=\count85
)
(/opt/local/share/texmf-texlive/tex/generic/oberdiek/ifpdf.sty
Package: ifpdf 2018/09/07 v3.3 Provides the ifpdf switch
)
\headdp=\dimen102
\footheight=\dimen103
\sidebarheight=\dimen104
\beamer@tempdim=\dimen105
\beamer@finalheight=\dimen106
\beamer@animht=\dimen107
\beamer@animdp=\dimen108
\beamer@animwd=\dimen109
\beamer@leftmargin=\dimen110
\beamer@rightmargin=\dimen111
\beamer@leftsidebar=\dimen112
\beamer@rightsidebar=\dimen113
\beamer@boxsize=\dimen114
\beamer@vboxoffset=\dimen115
\beamer@descdefault=\dimen116
\beamer@descriptionwidth=\dimen117
\beamer@lastskip=\skip41
\beamer@areabox=\box29
\beamer@animcurrent=\box30
\beamer@animshowbox=\box31
\beamer@sectionbox=\box32
\beamer@logobox=\box33
\beamer@linebox=\box34
\beamer@sectioncount=\count86
\beamer@subsubsectionmax=\count87
\beamer@subsectionmax=\count88
\beamer@sectionmax=\count89
\beamer@totalheads=\count90
\beamer@headcounter=\count91
\beamer@partstartpage=\count92
\beamer@sectionstartpage=\count93
\beamer@subsectionstartpage=\count94
\beamer@animationtempa=\count95
\beamer@animationtempb=\count96
\beamer@xpos=\count97
\beamer@ypos=\count98
\beamer@ypos@offset=\count99
\beamer@showpartnumber=\count100
\beamer@currentsubsection=\count101
\beamer@coveringdepth=\count102
\beamer@sectionadjust=\count103
\beamer@tocsectionnumber=\count104

(/opt/local/share/texmf-texlive/tex/latex/beamer/beamerbaseoptions.sty
(/opt/local/share/texmf-texlive/tex/latex/graphics/keyval.sty
Package: keyval 2014/10/28 v1.15 key=value parser (DPC)
\KV@toks@=\toks14
))
\beamer@paperwidth=\skip42
\beamer@paperheight=\skip43

(/opt/local/share/texmf-texlive/tex/latex/geometry/geometry.sty
Package: geometry 2018/04/16 v5.8 Page Geometry

(/opt/local/share/texmf-texlive/tex/generic/oberdiek/ifvtex.sty
Package: ifvtex 2016/05/16 v1.6 Detect VTeX and its facilities (HO)
Package ifvtex Info: VTeX not detected.
)
(/opt/local/share/texmf-texlive/tex/generic/ifxetex/ifxetex.sty
Package: ifxetex 2010/09/12 v0.6 Provides ifxetex conditional
)
\Gm@cnth=\count105
\Gm@cntv=\count106
\c@Gm@tempcnt=\count107
\Gm@bindingoffset=\dimen118
\Gm@wd@mp=\dimen119
\Gm@odd@mp=\dimen120
\Gm@even@mp=\dimen121
\Gm@layoutwidth=\dimen122
\Gm@layoutheight=\dimen123
\Gm@layouthoffset=\dimen124
\Gm@layoutvoffset=\dimen125
\Gm@dimlist=\toks15
)
(/opt/local/share/texmf-texlive/tex/latex/base/size10.clo
File: size10.clo 2018/09/03 v1.4i Standard LaTeX file (size option)
)
(/opt/local/share/texmf/tex/latex/pgf/basiclayer/pgfcore.sty
(/opt/local/share/texmf-texlive/tex/latex/graphics/graphicx.sty
Package: graphicx 2017/06/01 v1.1a Enhanced LaTeX Graphics (DPC,SPQR)

(/opt/local/share/texmf-texlive/tex/latex/graphics/graphics.sty
Package: graphics 2017/06/25 v1.2c Standard LaTeX Graphics (DPC,SPQR)

(/opt/local/share/texmf-texlive/tex/latex/graphics/trig.sty
Package: trig 2016/01/03 v1.10 sin cos tan (DPC)
)
(/opt/local/share/texmf-texlive/tex/latex/graphics-cfg/graphics.cfg
File: graphics.cfg 2016/06/04 v1.11 sample graphics configuration
)
Package graphics Info: Driver file: pdftex.def on input line 99.

(/opt/local/share/texmf-texlive/tex/latex/graphics-def/pdftex.def
File: pdftex.def 2018/01/08 v1.0l Graphics/color driver for pdftex
))
\Gin@req@height=\dimen126
\Gin@req@width=\dimen127
)
(/opt/local/share/texmf/tex/latex/pgf/systemlayer/pgfsys.sty
(/opt/local/share/texmf/tex/latex/pgf/utilities/pgfrcs.sty
(/opt/local/share/texmf/tex/generic/pgf/utilities/pgfutil-common.tex
\pgfutil@everybye=\toks16
\pgfutil@tempdima=\dimen128
\pgfutil@tempdimb=\dimen129

(/opt/local/share/texmf/tex/generic/pgf/utilities/pgfutil-common-lists.tex))
(/opt/local/share/texmf/tex/generic/pgf/utilities/pgfutil-latex.def
\pgfutil@abb=\box35

(/opt/local/share/texmf-texlive/tex/latex/ms/everyshi.sty
Package: everyshi 2001/05/15 v3.00 EveryShipout Package (MS)
))
(/opt/local/share/texmf/tex/generic/pgf/utilities/pgfrcs.code.tex
Package: pgfrcs 2014/07/01 v0.0 (0)
))
(/opt/local/share/texmf/tex/generic/pgf/systemlayer/pgfsys.code.tex
Package: pgfsys 2014/07/01 v0.0 (0)

(/opt/local/share/texmf/tex/generic/pgf/utilities/pgfkeys.code.tex
\pgfkeys@pathtoks=\toks17
\pgfkeys@temptoks=\toks18

(/opt/local/share/texmf/tex/generic/pgf/utilities/pgfkeysfiltered.code.tex
\pgfkeys@tmptoks=\toks19
))
\pgf@x=\dimen130
\pgf@y=\dimen131
\pgf@xa=\dimen132
\pgf@ya=\dimen133
\pgf@xb=\dimen134
\pgf@yb=\dimen135
\pgf@xc=\dimen136
\pgf@yc=\dimen137
\pgf@xd=\dimen138
\pgf@yd=\dimen139
\w@pgf@writea=\write3
\r@pgf@reada=\read1
\c@pgf@counta=\count108
\c@pgf@countb=\count109
\c@pgf@countc=\count110
\c@pgf@countd=\count111
\t@pgf@toka=\toks20
\t@pgf@tokb=\toks21
\t@pgf@tokc=\toks22
\pgf@sys@id@count=\count112

(/opt/local/share/texmf/tex/generic/pgf/systemlayer/pgf.cfg
File: pgf.cfg 2014/07/01 v0.0 (0)
)
Driver file for pgf: pgfsys-pdftex.def

(/opt/local/share/texmf/tex/generic/pgf/systemlayer/pgfsys-pdftex.def
File: pgfsys-pdftex.def 2014/07/01 v0.0 (0)

(/opt/local/share/texmf/tex/generic/pgf/systemlayer/pgfsys-common-pdf.def
File: pgfsys-common-pdf.def 2014/07/01 v0.0 (0)
)))
(/opt/local/share/texmf/tex/generic/pgf/systemlayer/pgfsyssoftpath.code.tex
File: pgfsyssoftpath.code.tex 2014/07/01 v0.0 (0)
\pgfsyssoftpath@smallbuffer@items=\count113
\pgfsyssoftpath@bigbuffer@items=\count114
)
(/opt/local/share/texmf/tex/generic/pgf/systemlayer/pgfsysprotocol.code.tex
File: pgfsysprotocol.code.tex 2014/07/01 v0.0 (0)
))
(/opt/local/share/texmf-texlive/tex/latex/xcolor/xcolor.sty
Package: xcolor 2016/05/11 v2.12 LaTeX color extensions (UK)

(/opt/local/share/texmf-texlive/tex/latex/graphics-cfg/color.cfg
File: color.cfg 2016/01/02 v1.6 sample color configuration
)
Package xcolor Info: Driver file: pdftex.def on input line 225.
Package xcolor Info: Model `cmy' substituted by `cmy0' on input line 1348.
Package xcolor Info: Model `hsb' substituted by `rgb' on input line 1352.
Package xcolor Info: Model `RGB' extended on input line 1364.
Package xcolor Info: Model `HTML' substituted by `rgb' on input line 1366.
Package xcolor Info: Model `Hsb' substituted by `hsb' on input line 1367.
Package xcolor Info: Model `tHsb' substituted by `hsb' on input line 1368.
Package xcolor Info: Model `HSB' substituted by `hsb' on input line 1369.
Package xcolor Info: Model `Gray' substituted by `gray' on input line 1370.
Package xcolor Info: Model `wave' substituted by `hsb' on input line 1371.
)
(/opt/local/share/texmf/tex/generic/pgf/basiclayer/pgfcore.code.tex
Package: pgfcore 2014/07/01 v0.0 (0)

(/opt/local/share/texmf/tex/generic/pgf/math/pgfmath.code.tex
(/opt/local/share/texmf/tex/generic/pgf/math/pgfmathcalc.code.tex
(/opt/local/share/texmf/tex/generic/pgf/math/pgfmathutil.code.tex)
(/opt/local/share/texmf/tex/generic/pgf/math/pgfmathparser.code.tex
\pgfmath@dimen=\dimen140
\pgfmath@count=\count115
\pgfmath@box=\box36
\pgfmath@toks=\toks23
\pgfmath@stack@operand=\toks24
\pgfmath@stack@operation=\toks25
)
(/opt/local/share/texmf/tex/generic/pgf/math/pgfmathfunctions.code.tex
(/opt/local/share/texmf/tex/generic/pgf/math/pgfmathfunctions.basic.code.tex)
(/opt/local/share/texmf/tex/generic/pgf/math/pgfmathfunctions.trigonometric.cod
e.tex)
(/opt/local/share/texmf/tex/generic/pgf/math/pgfmathfunctions.random.code.tex)
(/opt/local/share/texmf/tex/generic/pgf/math/pgfmathfunctions.comparison.code.t
ex) (/opt/local/share/texmf/tex/generic/pgf/math/pgfmathfunctions.base.code.tex
) (/opt/local/share/texmf/tex/generic/pgf/math/pgfmathfunctions.round.code.tex)
(/opt/local/share/texmf/tex/generic/pgf/math/pgfmathfunctions.misc.code.tex)
(/opt/local/share/texmf/tex/generic/pgf/math/pgfmathfunctions.integerarithmetic
s.code.tex)))
(/opt/local/share/texmf/tex/generic/pgf/math/pgfmathfloat.code.tex
\c@pgfmathroundto@lastzeros=\count116
))
(/opt/local/share/texmf/tex/generic/pgf/math/pgfint.code.tex)
(/opt/local/share/texmf/tex/generic/pgf/basiclayer/pgfcorepoints.code.tex
File: pgfcorepoints.code.tex 2014/07/01 v0.0 (0)
\pgf@picminx=\dimen141
\pgf@picmaxx=\dimen142
\pgf@picminy=\dimen143
\pgf@picmaxy=\dimen144
\pgf@pathminx=\dimen145
\pgf@pathmaxx=\dimen146
\pgf@pathminy=\dimen147
\pgf@pathmaxy=\dimen148
\pgf@xx=\dimen149
\pgf@xy=\dimen150
\pgf@yx=\dimen151
\pgf@yy=\dimen152
\pgf@zx=\dimen153
\pgf@zy=\dimen154
)
(/opt/local/share/texmf/tex/generic/pgf/basiclayer/pgfcorepathconstruct.code.te
x
File: pgfcorepathconstruct.code.tex 2014/07/01 v0.0 (0)
\pgf@path@lastx=\dimen155
\pgf@path@lasty=\dimen156
) (/opt/local/share/texmf/tex/generic/pgf/basiclayer/pgfcorepathusage.code.tex
File: pgfcorepathusage.code.tex 2014/07/01 v0.0 (0)
\pgf@shorten@end@additional=\dimen157
\pgf@shorten@start@additional=\dimen158
) (/opt/local/share/texmf/tex/generic/pgf/basiclayer/pgfcorescopes.code.tex
File: pgfcorescopes.code.tex 2014/07/01 v0.0 (0)
\pgfpic=\box37
\pgf@hbox=\box38
\pgf@layerbox@main=\box39
\pgf@picture@serial@count=\count117
)
(/opt/local/share/texmf/tex/generic/pgf/basiclayer/pgfcoregraphicstate.code.tex
File: pgfcoregraphicstate.code.tex 2014/07/01 v0.0 (0)
\pgflinewidth=\dimen159
)
(/opt/local/share/texmf/tex/generic/pgf/basiclayer/pgfcoretransformations.code.
tex
File: pgfcoretransformations.code.tex 2014/07/01 v0.0 (0)
\pgf@pt@x=\dimen160
\pgf@pt@y=\dimen161
\pgf@pt@temp=\dimen162
) (/opt/local/share/texmf/tex/generic/pgf/basiclayer/pgfcorequick.code.tex
File: pgfcorequick.code.tex 2014/07/01 v0.0 (0)
)
(/opt/local/share/texmf/tex/generic/pgf/basiclayer/pgfcoreobjects.code.tex
File: pgfcoreobjects.code.tex 2014/07/01 v0.0 (0)
)
(/opt/local/share/texmf/tex/generic/pgf/basiclayer/pgfcorepathprocessing.code.t
ex
File: pgfcorepathprocessing.code.tex 2014/07/01 v0.0 (0)
) (/opt/local/share/texmf/tex/generic/pgf/basiclayer/pgfcorearrows.code.tex
File: pgfcorearrows.code.tex 2014/07/01 v0.0 (0)
\pgfarrowsep=\dimen163
)
(/opt/local/share/texmf/tex/generic/pgf/basiclayer/pgfcoreshade.code.tex
File: pgfcoreshade.code.tex 2014/07/01 v0.0 (0)
\pgf@max=\dimen164
\pgf@sys@shading@range@num=\count118
\pgf@shadingcount=\count119
)
(/opt/local/share/texmf/tex/generic/pgf/basiclayer/pgfcoreimage.code.tex
File: pgfcoreimage.code.tex 2014/07/01 v0.0 (0)

(/opt/local/share/texmf/tex/generic/pgf/basiclayer/pgfcoreexternal.code.tex
File: pgfcoreexternal.code.tex 2014/07/01 v0.0 (0)
\pgfexternal@startupbox=\box40
))
(/opt/local/share/texmf/tex/generic/pgf/basiclayer/pgfcorelayers.code.tex
File: pgfcorelayers.code.tex 2014/07/01 v0.0 (0)
)
(/opt/local/share/texmf/tex/generic/pgf/basiclayer/pgfcoretransparency.code.tex
File: pgfcoretransparency.code.tex 2014/07/01 v0.0 (0)
) (/opt/local/share/texmf/tex/generic/pgf/basiclayer/pgfcorepatterns.code.tex
File: pgfcorepatterns.code.tex 2014/07/01 v0.0 (0)
)
(/opt/local/share/texmf/tex/generic/pgf/basiclayer/pgfcorerdf.code.tex
File: pgfcorerdf.code.tex 2014/07/01 v0.0 (0)
)))
(/opt/local/share/texmf/tex/latex/pgf/utilities/xxcolor.sty
Package: xxcolor 2003/10/24 ver 0.1
\XC@nummixins=\count120
\XC@countmixins=\count121
)
(/opt/local/share/texmf-texlive/tex/generic/oberdiek/atbegshi.sty
Package: atbegshi 2016/06/09 v1.18 At begin shipout hook (HO)

(/opt/local/share/texmf-texlive/tex/generic/oberdiek/infwarerr.sty
Package: infwarerr 2016/05/16 v1.4 Providing info/warning/error messages (HO)
)
(/opt/local/share/texmf-texlive/tex/generic/oberdiek/ltxcmds.sty
Package: ltxcmds 2016/05/16 v1.23 LaTeX kernel commands for general use (HO)
))
(/opt/local/share/texmf-texlive/tex/latex/hyperref/hyperref.sty
Package: hyperref 2018/11/30 v6.88e Hypertext links for LaTeX

(/opt/local/share/texmf-texlive/tex/generic/oberdiek/hobsub-hyperref.sty
Package: hobsub-hyperref 2016/05/16 v1.14 Bundle oberdiek, subset hyperref (HO)


(/opt/local/share/texmf-texlive/tex/generic/oberdiek/hobsub-generic.sty
Package: hobsub-generic 2016/05/16 v1.14 Bundle oberdiek, subset generic (HO)
Package: hobsub 2016/05/16 v1.14 Construct package bundles (HO)
Package hobsub Info: Skipping package `infwarerr' (already loaded).
Package hobsub Info: Skipping package `ltxcmds' (already loaded).
Package: ifluatex 2016/05/16 v1.4 Provides the ifluatex switch (HO)
Package ifluatex Info: LuaTeX not detected.
Package hobsub Info: Skipping package `ifvtex' (already loaded).
Package: intcalc 2016/05/16 v1.2 Expandable calculations with integers (HO)
Package hobsub Info: Skipping package `ifpdf' (already loaded).
Package: etexcmds 2016/05/16 v1.6 Avoid name clashes with e-TeX commands (HO)
Package: kvsetkeys 2016/05/16 v1.17 Key value parser (HO)
Package: kvdefinekeys 2016/05/16 v1.4 Define keys (HO)
Package: pdftexcmds 2018/09/10 v0.29 Utility functions of pdfTeX for LuaTeX (HO
)
Package pdftexcmds Info: LuaTeX not detected.
Package pdftexcmds Info: \pdf@primitive is available.
Package pdftexcmds Info: \pdf@ifprimitive is available.
Package pdftexcmds Info: \pdfdraftmode found.
Package: pdfescape 2016/05/16 v1.14 Implements pdfTeX's escape features (HO)
Package: bigintcalc 2016/05/16 v1.4 Expandable calculations on big integers (HO
)
Package: bitset 2016/05/16 v1.2 Handle bit-vector datatype (HO)
Package: uniquecounter 2016/05/16 v1.3 Provide unlimited unique counter (HO)
)
Package hobsub Info: Skipping package `hobsub' (already loaded).
Package: letltxmacro 2016/05/16 v1.5 Let assignment for LaTeX macros (HO)
Package: hopatch 2016/05/16 v1.3 Wrapper for package hooks (HO)
Package: xcolor-patch 2016/05/16 xcolor patch
Package: atveryend 2016/05/16 v1.9 Hooks at the very end of document (HO)
Package hobsub Info: Skipping package `atbegshi' (already loaded).
Package: refcount 2016/05/16 v3.5 Data extraction from label references (HO)
Package: hycolor 2016/05/16 v1.8 Color options for hyperref/bookmark (HO)
)
(/opt/local/share/texmf-texlive/tex/latex/oberdiek/auxhook.sty
Package: auxhook 2016/05/16 v1.4 Hooks for auxiliary files (HO)
)
(/opt/local/share/texmf-texlive/tex/latex/oberdiek/kvoptions.sty
Package: kvoptions 2016/05/16 v3.12 Key value format for package options (HO)
)
\@linkdim=\dimen165
\Hy@linkcounter=\count122
\Hy@pagecounter=\count123

(/opt/local/share/texmf-texlive/tex/latex/hyperref/pd1enc.def
File: pd1enc.def 2018/11/30 v6.88e Hyperref: PDFDocEncoding definition (HO)
Now handling font encoding PD1 ...
... no UTF-8 mapping file for font encoding PD1
)
\Hy@SavedSpaceFactor=\count124

(/opt/local/share/texmf-texlive/tex/latex/latexconfig/hyperref.cfg
File: hyperref.cfg 2002/06/06 v1.2 hyperref configuration of TeXLive
)
Package hyperref Info: Option `bookmarks' set `true' on input line 4393.
Package hyperref Info: Option `bookmarksopen' set `true' on input line 4393.
Package hyperref Info: Option `implicit' set `false' on input line 4393.
Package hyperref Info: Hyper figures OFF on input line 4519.
Package hyperref Info: Link nesting OFF on input line 4524.
Package hyperref Info: Hyper index ON on input line 4527.
Package hyperref Info: Plain pages OFF on input line 4534.
Package hyperref Info: Backreferencing OFF on input line 4539.
Package hyperref Info: Implicit mode OFF; no redefinition of LaTeX internals.
Package hyperref Info: Bookmarks ON on input line 4772.
\c@Hy@tempcnt=\count125

(/opt/local/share/texmf-texlive/tex/latex/url/url.sty
\Urlmuskip=\muskip10
Package: url 2013/09/16  ver 3.4  Verb mode for urls, etc.
)
LaTeX Info: Redefining \url on input line 5125.
\XeTeXLinkMargin=\dimen166
\Fld@menulength=\count126
\Field@Width=\dimen167
\Fld@charsize=\dimen168
Package hyperref Info: Hyper figures OFF on input line 6380.
Package hyperref Info: Link nesting OFF on input line 6385.
Package hyperref Info: Hyper index ON on input line 6388.
Package hyperref Info: backreferencing OFF on input line 6395.
Package hyperref Info: Link coloring OFF on input line 6400.
Package hyperref Info: Link coloring with OCG OFF on input line 6405.
Package hyperref Info: PDF/A mode OFF on input line 6410.
LaTeX Info: Redefining \ref on input line 6450.
LaTeX Info: Redefining \pageref on input line 6454.
\Hy@abspage=\count127


Package hyperref Message: Stopped early.

)
Package hyperref Info: Driver (autodetected): hpdftex.
 (/opt/local/share/texmf-texlive/tex/latex/hyperref/hpdftex.def
File: hpdftex.def 2018/11/30 v6.88e Hyperref driver for pdfTeX
\Fld@listcount=\count128
\c@bookmark@seq@number=\count129

(/opt/local/share/texmf-texlive/tex/latex/oberdiek/rerunfilecheck.sty
Package: rerunfilecheck 2016/05/16 v1.8 Rerun checks for auxiliary files (HO)
Package uniquecounter Info: New unique counter `rerunfilecheck' on input line 2
82.
))
(/opt/local/share/texmf-texlive/tex/latex/beamer/beamerbaserequires.sty
(/opt/local/share/texmf-texlive/tex/latex/beamer/beamerbasecompatibility.sty)
(/opt/local/share/texmf-texlive/tex/latex/beamer/beamerbasefont.sty
(/opt/local/share/texmf-texlive/tex/latex/amsfonts/amssymb.sty
Package: amssymb 2013/01/14 v3.01 AMS font symbols

(/opt/local/share/texmf-texlive/tex/latex/amsfonts/amsfonts.sty
Package: amsfonts 2013/01/14 v3.01 Basic AMSFonts support
\@emptytoks=\toks26
\symAMSa=\mathgroup4
\symAMSb=\mathgroup5
LaTeX Font Info:    Overwriting math alphabet `\mathfrak' in version `bold'
(Font)                  U/euf/m/n --> U/euf/b/n on input line 106.
)))
(/opt/local/share/texmf-texlive/tex/latex/beamer/beamerbasetranslator.sty
(/opt/local/share/texmf-texlive/tex/latex/translator/translator.sty
Package: translator 2018/01/04 v1.12 Easy translation of strings in LaTeX
))
(/opt/local/share/texmf-texlive/tex/latex/beamer/beamerbasemisc.sty)
(/opt/local/share/texmf-texlive/tex/latex/beamer/beamerbasetwoscreens.sty)
(/opt/local/share/texmf-texlive/tex/latex/beamer/beamerbaseoverlay.sty
\beamer@argscount=\count130
\beamer@lastskipcover=\skip44
\beamer@trivlistdepth=\count131
)
(/opt/local/share/texmf-texlive/tex/latex/beamer/beamerbasetitle.sty)
(/opt/local/share/texmf-texlive/tex/latex/beamer/beamerbasesection.sty
\c@lecture=\count132
\c@part=\count133
\c@section=\count134
\c@subsection=\count135
\c@subsubsection=\count136
)
(/opt/local/share/texmf-texlive/tex/latex/beamer/beamerbaseframe.sty
\beamer@framebox=\box41
\beamer@frametitlebox=\box42
\beamer@zoombox=\box43
\beamer@zoomcount=\count137
\beamer@zoomframecount=\count138
\beamer@frametextheight=\dimen169
\c@subsectionslide=\count139
\beamer@frametopskip=\skip45
\beamer@framebottomskip=\skip46
\beamer@frametopskipautobreak=\skip47
\beamer@framebottomskipautobreak=\skip48
\beamer@envbody=\toks27
\framewidth=\dimen170
\c@framenumber=\count140
)
(/opt/local/share/texmf-texlive/tex/latex/beamer/beamerbaseverbatim.sty
\beamer@verbatimfileout=\write4
)
(/opt/local/share/texmf-texlive/tex/latex/beamer/beamerbaseframesize.sty
\beamer@splitbox=\box44
\beamer@autobreakcount=\count141
\beamer@autobreaklastheight=\dimen171
\beamer@frametitletoks=\toks28
\beamer@framesubtitletoks=\toks29
)
(/opt/local/share/texmf-texlive/tex/latex/beamer/beamerbaseframecomponents.sty
\beamer@footins=\box45
) (/opt/local/share/texmf-texlive/tex/latex/beamer/beamerbasecolor.sty)
(/opt/local/share/texmf-texlive/tex/latex/beamer/beamerbasenotes.sty
\beamer@frameboxcopy=\box46
)
(/opt/local/share/texmf-texlive/tex/latex/beamer/beamerbasetoc.sty)
(/opt/local/share/texmf-texlive/tex/latex/beamer/beamerbasetemplates.sty
\beamer@sbttoks=\toks30

(/opt/local/share/texmf-texlive/tex/latex/beamer/beamerbaseauxtemplates.sty
(/opt/local/share/texmf-texlive/tex/latex/beamer/beamerbaseboxes.sty
\bmb@box=\box47
\bmb@colorbox=\box48
\bmb@boxshadow=\box49
\bmb@boxshadowball=\box50
\bmb@boxshadowballlarge=\box51
\bmb@temp=\dimen172
\bmb@dima=\dimen173
\bmb@dimb=\dimen174
\bmb@prevheight=\dimen175
)
\beamer@blockheadheight=\dimen176
))
(/opt/local/share/texmf-texlive/tex/latex/beamer/beamerbaselocalstructure.sty
(/opt/local/share/texmf-texlive/tex/latex/tools/enumerate.sty
Package: enumerate 2015/07/23 v3.00 enumerate extensions (DPC)
\@enLab=\toks31
)
\c@figure=\count142
\c@table=\count143
\abovecaptionskip=\skip49
\belowcaptionskip=\skip50
)
(/opt/local/share/texmf-texlive/tex/latex/beamer/beamerbasenavigation.sty
\beamer@section@min@dim=\dimen177
)
(/opt/local/share/texmf-texlive/tex/latex/beamer/beamerbasetheorems.sty
(/opt/local/share/texmf-texlive/tex/latex/amsmath/amsmath.sty
Package: amsmath 2018/12/01 v2.17b AMS math features
\@mathmargin=\skip51

For additional information on amsmath, use the `?' option.
(/opt/local/share/texmf-texlive/tex/latex/amsmath/amstext.sty
Package: amstext 2000/06/29 v2.01 AMS text

(/opt/local/share/texmf-texlive/tex/latex/amsmath/amsgen.sty
File: amsgen.sty 1999/11/30 v2.0 generic functions
\@emptytoks=\toks32
\ex@=\dimen178
))
(/opt/local/share/texmf-texlive/tex/latex/amsmath/amsbsy.sty
Package: amsbsy 1999/11/29 v1.2d Bold Symbols
\pmbraise@=\dimen179
)
(/opt/local/share/texmf-texlive/tex/latex/amsmath/amsopn.sty
Package: amsopn 2016/03/08 v2.02 operator names
)
\inf@bad=\count144
LaTeX Info: Redefining \frac on input line 223.
\uproot@=\count145
\leftroot@=\count146
LaTeX Info: Redefining \overline on input line 385.
\classnum@=\count147
\DOTSCASE@=\count148
LaTeX Info: Redefining \ldots on input line 482.
LaTeX Info: Redefining \dots on input line 485.
LaTeX Info: Redefining \cdots on input line 606.
\Mathstrutbox@=\box52
\strutbox@=\box53
\big@size=\dimen180
LaTeX Font Info:    Redeclaring font encoding OML on input line 729.
LaTeX Font Info:    Redeclaring font encoding OMS on input line 730.
\macc@depth=\count149
\c@MaxMatrixCols=\count150
\dotsspace@=\muskip11
\c@parentequation=\count151
\dspbrk@lvl=\count152
\tag@help=\toks33
\row@=\count153
\column@=\count154
\maxfields@=\count155
\andhelp@=\toks34
\eqnshift@=\dimen181
\alignsep@=\dimen182
\tagshift@=\dimen183
\tagwidth@=\dimen184
\totwidth@=\dimen185
\lineht@=\dimen186
\@envbody=\toks35
\multlinegap=\skip52
\multlinetaggap=\skip53
\mathdisplay@stack=\toks36
LaTeX Info: Redefining \[ on input line 2844.
LaTeX Info: Redefining \] on input line 2845.
)
(/opt/local/share/texmf-texlive/tex/latex/amscls/amsthm.sty
Package: amsthm 2017/10/31 v2.20.4
\thm@style=\toks37
\thm@bodyfont=\toks38
\thm@headfont=\toks39
\thm@notefont=\toks40
\thm@headpunct=\toks41
\thm@preskip=\skip54
\thm@postskip=\skip55
\thm@headsep=\skip56
\dth@everypar=\toks42
)
\c@theorem=\count156
)
(/opt/local/share/texmf-texlive/tex/latex/beamer/beamerbasethemes.sty))
(/opt/local/share/texmf-texlive/tex/latex/beamer/beamerthemedefault.sty
(/opt/local/share/texmf-texlive/tex/latex/beamer/beamerfontthemedefault.sty)
(/opt/local/share/texmf-texlive/tex/latex/beamer/beamercolorthemedefault.sty)
(/opt/local/share/texmf-texlive/tex/latex/beamer/beamerinnerthemedefault.sty
\beamer@dima=\dimen187
\beamer@dimb=\dimen188
)
(/opt/local/share/texmf-texlive/tex/latex/beamer/beamerouterthemedefault.sty)))
(/opt/local/share/texmf/tex/latex/curtin_beamer.sty
(/opt/local/share/texmf-texlive/tex/latex/collect/natbib.sty
Package: natbib 2010/09/13 8.31b (PWD, AO)
\bibhang=\skip57
\bibsep=\skip58
LaTeX Info: Redefining \cite on input line 694.
\c@NAT@ctr=\count157
)
(/opt/local/share/texmf-texlive/tex/latex/tools/array.sty
Package: array 2018/12/30 v2.4k Tabular extension package (FMi)
\col@sep=\dimen189
\ar@mcellbox=\box54
\extrarowheight=\dimen190
\NC@list=\toks43
\extratabsurround=\skip59
\backup@length=\skip60
\ar@cellbox=\box55
)
\c@assumption=\count158
\c@proposition=\count159

(/opt/local/share/texmf/tex/latex/beamercolorthemefelix.sty))
(/opt/local/share/texmf/tex/latex/fcsymbol.sty
Package: fcsymbol 2015/09/22
) (./DA_prob.aux)
\openout1 = `DA_prob.aux'.

LaTeX Font Info:    Checking defaults for OML/cmm/m/it on input line 10.
LaTeX Font Info:    ... okay on input line 10.
LaTeX Font Info:    Checking defaults for T1/cmr/m/n on input line 10.
LaTeX Font Info:    ... okay on input line 10.
LaTeX Font Info:    Checking defaults for OT1/cmr/m/n on input line 10.
LaTeX Font Info:    ... okay on input line 10.
LaTeX Font Info:    Checking defaults for OMS/cmsy/m/n on input line 10.
LaTeX Font Info:    ... okay on input line 10.
LaTeX Font Info:    Checking defaults for OMX/cmex/m/n on input line 10.
LaTeX Font Info:    ... okay on input line 10.
LaTeX Font Info:    Checking defaults for U/cmr/m/n on input line 10.
LaTeX Font Info:    ... okay on input line 10.
LaTeX Font Info:    Checking defaults for PD1/pdf/m/n on input line 10.
LaTeX Font Info:    ... okay on input line 10.

*geometry* driver: auto-detecting
*geometry* detected driver: pdftex
*geometry* verbose mode - [ preamble ] result:
* driver: pdftex
* paper: custom
* layout: <same size as paper>
* layoutoffset:(h,v)=(0.0pt,0.0pt)
* modes: includehead includefoot 
* h-part:(L,W,R)=(28.45274pt, 307.28987pt, 28.45274pt)
* v-part:(T,H,B)=(0.0pt, 273.14662pt, 0.0pt)
* \paperwidth=364.19536pt
* \paperheight=273.14662pt
* \textwidth=307.28987pt
* \textheight=244.6939pt
* \oddsidemargin=-43.81725pt
* \evensidemargin=-43.81725pt
* \topmargin=-72.26999pt
* \headheight=14.22636pt
* \headsep=0.0pt
* \topskip=10.0pt
* \footskip=14.22636pt
* \marginparwidth=3.0pt
* \marginparsep=11.0pt
* \columnsep=10.0pt
* \skip\footins=9.0pt plus 4.0pt minus 2.0pt
* \hoffset=0.0pt
* \voffset=0.0pt
* \mag=1000
* \@twocolumnfalse
* \@twosidefalse
* \@mparswitchfalse
* \@reversemarginfalse
* (1in=72.27pt=25.4mm, 1cm=28.453pt)

(/opt/local/share/texmf-texlive/tex/context/base/mkii/supp-pdf.mkii
[Loading MPS to PDF converter (version 2006.09.02).]
\scratchcounter=\count160
\scratchdimen=\dimen191
\scratchbox=\box56
\nofMPsegments=\count161
\nofMParguments=\count162
\everyMPshowfont=\toks44
\MPscratchCnt=\count163
\MPscratchDim=\dimen192
\MPnumerator=\count164
\makeMPintoPDFobject=\count165
\everyMPtoPDFconversion=\toks45
) (/opt/local/share/texmf-texlive/tex/latex/oberdiek/epstopdf-base.sty
Package: epstopdf-base 2016/05/15 v2.6 Base part for package epstopdf

(/opt/local/share/texmf-texlive/tex/latex/oberdiek/grfext.sty
Package: grfext 2016/05/16 v1.2 Manage graphics extensions (HO)
)
Package epstopdf-base Info: Redefining graphics rule for `.eps' on input line 4
38.
Package grfext Info: Graphics extension search list:
(grfext)             [.pdf,.png,.jpg,.mps,.jpeg,.jbig2,.jb2,.PDF,.PNG,.JPG,.JPE
G,.JBIG2,.JB2,.eps]
(grfext)             \AppendGraphicsExtensions on input line 456.

(/opt/local/share/texmf-texlive/tex/latex/latexconfig/epstopdf-sys.cfg
File: epstopdf-sys.cfg 2010/07/13 v1.3 Configuration of (r)epstopdf for TeX Liv
e
))
ABD: EveryShipout initializing macros
\AtBeginShipoutBox=\box57
Package hyperref Info: Link coloring OFF on input line 10.

(/opt/local/share/texmf-texlive/tex/latex/hyperref/nameref.sty
Package: nameref 2016/05/21 v2.44 Cross-referencing by name of section

(/opt/local/share/texmf-texlive/tex/generic/oberdiek/gettitlestring.sty
Package: gettitlestring 2016/05/16 v1.5 Cleanup title references (HO)
)
\c@section@level=\count166
)
LaTeX Info: Redefining \ref on input line 10.
LaTeX Info: Redefining \pageref on input line 10.
LaTeX Info: Redefining \nameref on input line 10.

(./DA_prob.out) (./DA_prob.out)
\@outlinefile=\write5
\openout5 = `DA_prob.out'.

LaTeX Font Info:    Overwriting symbol font `operators' in version `normal'
(Font)                  OT1/cmr/m/n --> OT1/cmss/m/n on input line 10.
LaTeX Font Info:    Overwriting symbol font `operators' in version `bold'
(Font)                  OT1/cmr/bx/n --> OT1/cmss/bx/n on input line 10.
\symnumbers=\mathgroup6
\sympureletters=\mathgroup7
LaTeX Font Info:    Overwriting math alphabet `\mathrm' in version `normal'
(Font)                  OT1/cmss/m/n --> OT1/cmr/m/n on input line 10.
LaTeX Font Info:    Redeclaring math alphabet \mathbf on input line 10.
LaTeX Font Info:    Overwriting math alphabet `\mathbf' in version `normal'
(Font)                  OT1/cmr/bx/n --> OT1/cmss/bx/n on input line 10.
LaTeX Font Info:    Overwriting math alphabet `\mathbf' in version `bold'
(Font)                  OT1/cmr/bx/n --> OT1/cmss/bx/n on input line 10.
LaTeX Font Info:    Redeclaring math alphabet \mathsf on input line 10.
LaTeX Font Info:    Overwriting math alphabet `\mathsf' in version `normal'
(Font)                  OT1/cmss/m/n --> OT1/cmss/m/n on input line 10.
LaTeX Font Info:    Overwriting math alphabet `\mathsf' in version `bold'
(Font)                  OT1/cmss/bx/n --> OT1/cmss/m/n on input line 10.
LaTeX Font Info:    Redeclaring math alphabet \mathit on input line 10.
LaTeX Font Info:    Overwriting math alphabet `\mathit' in version `normal'
(Font)                  OT1/cmr/m/it --> OT1/cmss/m/it on input line 10.
LaTeX Font Info:    Overwriting math alphabet `\mathit' in version `bold'
(Font)                  OT1/cmr/bx/it --> OT1/cmss/m/it on input line 10.
LaTeX Font Info:    Redeclaring math alphabet \mathtt on input line 10.
LaTeX Font Info:    Overwriting math alphabet `\mathtt' in version `normal'
(Font)                  OT1/cmtt/m/n --> OT1/cmtt/m/n on input line 10.
LaTeX Font Info:    Overwriting math alphabet `\mathtt' in version `bold'
(Font)                  OT1/cmtt/m/n --> OT1/cmtt/m/n on input line 10.
LaTeX Font Info:    Overwriting symbol font `numbers' in version `bold'
(Font)                  OT1/cmss/m/n --> OT1/cmss/bx/n on input line 10.
LaTeX Font Info:    Overwriting symbol font `pureletters' in version `bold'
(Font)                  OT1/cmss/m/it --> OT1/cmss/bx/it on input line 10.
LaTeX Font Info:    Overwriting math alphabet `\mathrm' in version `bold'
(Font)                  OT1/cmss/bx/n --> OT1/cmr/bx/n on input line 10.
LaTeX Font Info:    Overwriting math alphabet `\mathbf' in version `bold'
(Font)                  OT1/cmss/bx/n --> OT1/cmss/bx/n on input line 10.
LaTeX Font Info:    Overwriting math alphabet `\mathsf' in version `bold'
(Font)                  OT1/cmss/m/n --> OT1/cmss/bx/n on input line 10.
LaTeX Font Info:    Overwriting math alphabet `\mathit' in version `bold'
(Font)                  OT1/cmss/m/it --> OT1/cmss/bx/it on input line 10.
LaTeX Font Info:    Overwriting math alphabet `\mathtt' in version `bold'
(Font)                  OT1/cmtt/m/n --> OT1/cmtt/bx/n on input line 10.

(/opt/local/share/texmf-texlive/tex/latex/translator/translator-basic-dictionar
y-English.dict
Dictionary: translator-basic-dictionary, Language: English 
)
(/opt/local/share/texmf-texlive/tex/latex/translator/translator-bibliography-di
ctionary-English.dict
Dictionary: translator-bibliography-dictionary, Language: English 
)
(/opt/local/share/texmf-texlive/tex/latex/translator/translator-environment-dic
tionary-English.dict
Dictionary: translator-environment-dictionary, Language: English 
)
(/opt/local/share/texmf-texlive/tex/latex/translator/translator-months-dictiona
ry-English.dict
Dictionary: translator-months-dictionary, Language: English 
)
(/opt/local/share/texmf-texlive/tex/latex/translator/translator-numbers-diction
ary-English.dict
Dictionary: translator-numbers-dictionary, Language: English 
)
(/opt/local/share/texmf-texlive/tex/latex/translator/translator-theorem-diction
ary-English.dict
Dictionary: translator-theorem-dictionary, Language: English 
) (./DA_prob.nav)
</opt/local/share/curtin/curtin.png, id=13, 230.8625pt x 40.15pt>
File: /opt/local/share/curtin/curtin.png Graphic file (type png)
<use /opt/local/share/curtin/curtin.png>
Package pdftex.def Info: /opt/local/share/curtin/curtin.png  used on input line
 11.
(pdftex.def)             Requested size: 80.80307pt x 14.0527pt.
LaTeX Font Info:    Try loading font information for U+msa on input line 11.

(/opt/local/share/texmf-texlive/tex/latex/amsfonts/umsa.fd
File: umsa.fd 2013/01/14 v3.01 AMS symbols A
)
LaTeX Font Info:    Try loading font information for U+msb on input line 11.

(/opt/local/share/texmf-texlive/tex/latex/amsfonts/umsb.fd
File: umsb.fd 2013/01/14 v3.01 AMS symbols B
)
</opt/local/share/curtin/curtin_background.pdf, id=14, 1927.2pt x 1084.05pt>
File: /opt/local/share/curtin/curtin_background.pdf Graphic file (type pdf)
<use /opt/local/share/curtin/curtin_background.pdf>
Package pdftex.def Info: /opt/local/share/curtin/curtin_background.pdf  used on
 input line 11.
(pdftex.def)             Requested size: 364.17215pt x 273.14566pt.
 [1

{/opt/local/var/db/texmf/fonts/map/pdftex/updmap/pdftex.map} </opt/local/share/
curtin/curtin_background.pdf> </opt/local/share/curtin/curtin.png (PNG copy)>]
File: /opt/local/share/curtin/curtin.png Graphic file (type png)
<use /opt/local/share/curtin/curtin.png>
Package pdftex.def Info: /opt/local/share/curtin/curtin.png  used on input line
 31.
(pdftex.def)             Requested size: 80.80307pt x 14.0527pt.
 [2

]
File: /opt/local/share/curtin/curtin.png Graphic file (type png)
<use /opt/local/share/curtin/curtin.png>
Package pdftex.def Info: /opt/local/share/curtin/curtin.png  used on input line
 31.
(pdftex.def)             Requested size: 80.80307pt x 14.0527pt.
 [3

]
File: /opt/local/share/curtin/curtin.png Graphic file (type png)
<use /opt/local/share/curtin/curtin.png>
Package pdftex.def Info: /opt/local/share/curtin/curtin.png  used on input line
 31.
(pdftex.def)             Requested size: 80.80307pt x 14.0527pt.
 [4

]
File: /opt/local/share/curtin/curtin.png Graphic file (type png)
<use /opt/local/share/curtin/curtin.png>
Package pdftex.def Info: /opt/local/share/curtin/curtin.png  used on input line
 40.
(pdftex.def)             Requested size: 80.80307pt x 14.0527pt.

[5

]
File: /opt/local/share/curtin/curtin.png Graphic file (type png)
<use /opt/local/share/curtin/curtin.png>
Package pdftex.def Info: /opt/local/share/curtin/curtin.png  used on input line
 40.
(pdftex.def)             Requested size: 80.80307pt x 14.0527pt.
 [6

]
File: /opt/local/share/curtin/curtin.png Graphic file (type png)
<use /opt/local/share/curtin/curtin.png>
Package pdftex.def Info: /opt/local/share/curtin/curtin.png  used on input line
 40.
(pdftex.def)             Requested size: 80.80307pt x 14.0527pt.
 [7

]
<../pics/cointoss.jpg, id=76, 199.74625pt x 253.94875pt>
File: ../pics/cointoss.jpg Graphic file (type jpg)
<use ../pics/cointoss.jpg>
Package pdftex.def Info: ../pics/cointoss.jpg  used on input line 59.
(pdftex.def)             Requested size: 99.87288pt x 126.97406pt.
File: /opt/local/share/curtin/curtin.png Graphic file (type png)
<use /opt/local/share/curtin/curtin.png>
Package pdftex.def Info: /opt/local/share/curtin/curtin.png  used on input line
 59.
(pdftex.def)             Requested size: 80.80307pt x 14.0527pt.
 [8

 <../pics/cointoss.jpg>]
File: /opt/local/share/curtin/curtin.png Graphic file (type png)
<use /opt/local/share/curtin/curtin.png>
Package pdftex.def Info: /opt/local/share/curtin/curtin.png  used on input line
 68.
(pdftex.def)             Requested size: 80.80307pt x 14.0527pt.
 [9

]
File: /opt/local/share/curtin/curtin.png Graphic file (type png)
<use /opt/local/share/curtin/curtin.png>
Package pdftex.def Info: /opt/local/share/curtin/curtin.png  used on input line
 76.
(pdftex.def)             Requested size: 80.80307pt x 14.0527pt.
 [10

]
File: /opt/local/share/curtin/curtin.png Graphic file (type png)
<use /opt/local/share/curtin/curtin.png>
Package pdftex.def Info: /opt/local/share/curtin/curtin.png  used on input line
 86.
(pdftex.def)             Requested size: 80.80307pt x 14.0527pt.
 [11

]
File: /opt/local/share/curtin/curtin.png Graphic file (type png)
<use /opt/local/share/curtin/curtin.png>
Package pdftex.def Info: /opt/local/share/curtin/curtin.png  used on input line
 96.
(pdftex.def)             Requested size: 80.80307pt x 14.0527pt.
 [12

]
File: /opt/local/share/curtin/curtin.png Graphic file (type png)
<use /opt/local/share/curtin/curtin.png>
Package pdftex.def Info: /opt/local/share/curtin/curtin.png  used on input line
 105.
(pdftex.def)             Requested size: 80.80307pt x 14.0527pt.
 [13

]
File: /opt/local/share/curtin/curtin.png Graphic file (type png)
<use /opt/local/share/curtin/curtin.png>
Package pdftex.def Info: /opt/local/share/curtin/curtin.png  used on input line
 114.
(pdftex.def)             Requested size: 80.80307pt x 14.0527pt.
 [14

]
File: /opt/local/share/curtin/curtin.png Graphic file (type png)
<use /opt/local/share/curtin/curtin.png>
Package pdftex.def Info: /opt/local/share/curtin/curtin.png  used on input line
 127.
(pdftex.def)             Requested size: 80.80307pt x 14.0527pt.
 [15

]
File: /opt/local/share/curtin/curtin.png Graphic file (type png)
<use /opt/local/share/curtin/curtin.png>
Package pdftex.def Info: /opt/local/share/curtin/curtin.png  used on input line
 136.
(pdftex.def)             Requested size: 80.80307pt x 14.0527pt.

[16

]
File: /opt/local/share/curtin/curtin.png Graphic file (type png)
<use /opt/local/share/curtin/curtin.png>
Package pdftex.def Info: /opt/local/share/curtin/curtin.png  used on input line
 136.
(pdftex.def)             Requested size: 80.80307pt x 14.0527pt.
 [17

]
File: /opt/local/share/curtin/curtin.png Graphic file (type png)
<use /opt/local/share/curtin/curtin.png>
Package pdftex.def Info: /opt/local/share/curtin/curtin.png  used on input line
 136.
(pdftex.def)             Requested size: 80.80307pt x 14.0527pt.
 [18

]
File: /opt/local/share/curtin/curtin.png Graphic file (type png)
<use /opt/local/share/curtin/curtin.png>
Package pdftex.def Info: /opt/local/share/curtin/curtin.png  used on input line
 146.
(pdftex.def)             Requested size: 80.80307pt x 14.0527pt.
 [19

]
File: /opt/local/share/curtin/curtin.png Graphic file (type png)
<use /opt/local/share/curtin/curtin.png>
Package pdftex.def Info: /opt/local/share/curtin/curtin.png  used on input line
 159.
(pdftex.def)             Requested size: 80.80307pt x 14.0527pt.
 [20

]
File: /opt/local/share/curtin/curtin.png Graphic file (type png)
<use /opt/local/share/curtin/curtin.png>
Package pdftex.def Info: /opt/local/share/curtin/curtin.png  used on input line
 169.
(pdftex.def)             Requested size: 80.80307pt x 14.0527pt.
 [21

]
File: /opt/local/share/curtin/curtin.png Graphic file (type png)
<use /opt/local/share/curtin/curtin.png>
Package pdftex.def Info: /opt/local/share/curtin/curtin.png  used on input line
 180.
(pdftex.def)             Requested size: 80.80307pt x 14.0527pt.
 [22

]
File: /opt/local/share/curtin/curtin.png Graphic file (type png)
<use /opt/local/share/curtin/curtin.png>
Package pdftex.def Info: /opt/local/share/curtin/curtin.png  used on input line
 180.
(pdftex.def)             Requested size: 80.80307pt x 14.0527pt.
 [23

]
File: /opt/local/share/curtin/curtin.png Graphic file (type png)
<use /opt/local/share/curtin/curtin.png>
Package pdftex.def Info: /opt/local/share/curtin/curtin.png  used on input line
 188.
(pdftex.def)             Requested size: 80.80307pt x 14.0527pt.
 [24

]
<../pics/binomial_30.pdf, id=170, 1129.21875pt x 925.95938pt>
File: ../pics/binomial_30.pdf Graphic file (type pdf)
<use ../pics/binomial_30.pdf>
Package pdftex.def Info: ../pics/binomial_30.pdf  used on input line 195.
(pdftex.def)             Requested size: 248.4289pt x 203.71169pt.
File: /opt/local/share/curtin/curtin.png Graphic file (type png)
<use /opt/local/share/curtin/curtin.png>
Package pdftex.def Info: /opt/local/share/curtin/curtin.png  used on input line
 195.
(pdftex.def)             Requested size: 80.80307pt x 14.0527pt.
 [25

 <../pics/binomial_30.pdf>]
<../pics/normal.pdf, id=229, 686.565pt x 296.10625pt>
File: ../pics/normal.pdf Graphic file (type pdf)
<use ../pics/normal.pdf>
Package pdftex.def Info: ../pics/normal.pdf  used on input line 202.
(pdftex.def)             Requested size: 343.28166pt x 148.05275pt.

Overfull \hbox (35.99179pt too wide) in paragraph at lines 202--202
 [] 
 []

File: /opt/local/share/curtin/curtin.png Graphic file (type png)
<use /opt/local/share/curtin/curtin.png>
Package pdftex.def Info: /opt/local/share/curtin/curtin.png  used on input line
 202.
(pdftex.def)             Requested size: 80.80307pt x 14.0527pt.
[26

 <../pics/normal.pdf>]
<../pics/normal_prob.jpg, id=237, 685.8423pt x 295.5843pt>
File: ../pics/normal_prob.jpg Graphic file (type jpg)
<use ../pics/normal_prob.jpg>
Package pdftex.def Info: ../pics/normal_prob.jpg  used on input line 209.
(pdftex.def)             Requested size: 342.9203pt x 147.79178pt.

Overfull \hbox (35.63043pt too wide) in paragraph at lines 209--209
 [] 
 []

File: /opt/local/share/curtin/curtin.png Graphic file (type png)
<use /opt/local/share/curtin/curtin.png>
Package pdftex.def Info: /opt/local/share/curtin/curtin.png  used on input line
 209.
(pdftex.def)             Requested size: 80.80307pt x 14.0527pt.
[27

 <../pics/normal_prob.jpg>]
File: /opt/local/share/curtin/curtin.png Graphic file (type png)
<use /opt/local/share/curtin/curtin.png>
Package pdftex.def Info: /opt/local/share/curtin/curtin.png  used on input line
 222.
(pdftex.def)             Requested size: 80.80307pt x 14.0527pt.
 [28

]
File: /opt/local/share/curtin/curtin.png Graphic file (type png)
<use /opt/local/share/curtin/curtin.png>
Package pdftex.def Info: /opt/local/share/curtin/curtin.png  used on input line
 232.
(pdftex.def)             Requested size: 80.80307pt x 14.0527pt.
 [29

]
File: /opt/local/share/curtin/curtin.png Graphic file (type png)
<use /opt/local/share/curtin/curtin.png>
Package pdftex.def Info: /opt/local/share/curtin/curtin.png  used on input line
 243.
(pdftex.def)             Requested size: 80.80307pt x 14.0527pt.
 [30

]
File: /opt/local/share/curtin/curtin.png Graphic file (type png)
<use /opt/local/share/curtin/curtin.png>
Package pdftex.def Info: /opt/local/share/curtin/curtin.png  used on input line
 254.
(pdftex.def)             Requested size: 80.80307pt x 14.0527pt.
 [31

]
File: /opt/local/share/curtin/curtin.png Graphic file (type png)
<use /opt/local/share/curtin/curtin.png>
Package pdftex.def Info: /opt/local/share/curtin/curtin.png  used on input line
 259.
(pdftex.def)             Requested size: 80.80307pt x 14.0527pt.
 [32

]
File: /opt/local/share/curtin/curtin.png Graphic file (type png)
<use /opt/local/share/curtin/curtin.png>
Package pdftex.def Info: /opt/local/share/curtin/curtin.png  used on input line
 268.
(pdftex.def)             Requested size: 80.80307pt x 14.0527pt.
 [33

]
File: /opt/local/share/curtin/curtin.png Graphic file (type png)
<use /opt/local/share/curtin/curtin.png>
Package pdftex.def Info: /opt/local/share/curtin/curtin.png  used on input line
 281.
(pdftex.def)             Requested size: 80.80307pt x 14.0527pt.
 [34

]
File: /opt/local/share/curtin/curtin.png Graphic file (type png)
<use /opt/local/share/curtin/curtin.png>
Package pdftex.def Info: /opt/local/share/curtin/curtin.png  used on input line
 299.
(pdftex.def)             Requested size: 80.80307pt x 14.0527pt.
 [35

]
File: /opt/local/share/curtin/curtin.png Graphic file (type png)
<use /opt/local/share/curtin/curtin.png>
Package pdftex.def Info: /opt/local/share/curtin/curtin.png  used on input line
 311.
(pdftex.def)             Requested size: 80.80307pt x 14.0527pt.
 [36

]
File: /opt/local/share/curtin/curtin.png Graphic file (type png)
<use /opt/local/share/curtin/curtin.png>
Package pdftex.def Info: /opt/local/share/curtin/curtin.png  used on input line
 326.
(pdftex.def)             Requested size: 80.80307pt x 14.0527pt.

[37

]
File: /opt/local/share/curtin/curtin.png Graphic file (type png)
<use /opt/local/share/curtin/curtin.png>
Package pdftex.def Info: /opt/local/share/curtin/curtin.png  used on input line
 326.
(pdftex.def)             Requested size: 80.80307pt x 14.0527pt.
 [38

]
File: /opt/local/share/curtin/curtin.png Graphic file (type png)
<use /opt/local/share/curtin/curtin.png>
Package pdftex.def Info: /opt/local/share/curtin/curtin.png  used on input line
 338.
(pdftex.def)             Requested size: 80.80307pt x 14.0527pt.
 [39

]
File: /opt/local/share/curtin/curtin.png Graphic file (type png)
<use /opt/local/share/curtin/curtin.png>
Package pdftex.def Info: /opt/local/share/curtin/curtin.png  used on input line
 349.
(pdftex.def)             Requested size: 80.80307pt x 14.0527pt.
 [40

]
File: /opt/local/share/curtin/curtin.png Graphic file (type png)
<use /opt/local/share/curtin/curtin.png>
Package pdftex.def Info: /opt/local/share/curtin/curtin.png  used on input line
 361.
(pdftex.def)             Requested size: 80.80307pt x 14.0527pt.
 [41

]
File: /opt/local/share/curtin/curtin.png Graphic file (type png)
<use /opt/local/share/curtin/curtin.png>
Package pdftex.def Info: /opt/local/share/curtin/curtin.png  used on input line
 361.
(pdftex.def)             Requested size: 80.80307pt x 14.0527pt.
 [42

]
File: /opt/local/share/curtin/curtin.png Graphic file (type png)
<use /opt/local/share/curtin/curtin.png>
Package pdftex.def Info: /opt/local/share/curtin/curtin.png  used on input line
 376.
(pdftex.def)             Requested size: 80.80307pt x 14.0527pt.
 [43

]
File: /opt/local/share/curtin/curtin.png Graphic file (type png)
<use /opt/local/share/curtin/curtin.png>
Package pdftex.def Info: /opt/local/share/curtin/curtin.png  used on input line
 390.
(pdftex.def)             Requested size: 80.80307pt x 14.0527pt.
 [44

]
File: /opt/local/share/curtin/curtin.png Graphic file (type png)
<use /opt/local/share/curtin/curtin.png>
Package pdftex.def Info: /opt/local/share/curtin/curtin.png  used on input line
 390.
(pdftex.def)             Requested size: 80.80307pt x 14.0527pt.
 [45

]
File: /opt/local/share/curtin/curtin.png Graphic file (type png)
<use /opt/local/share/curtin/curtin.png>
Package pdftex.def Info: /opt/local/share/curtin/curtin.png  used on input line
 390.
(pdftex.def)             Requested size: 80.80307pt x 14.0527pt.
 [46

]
File: /opt/local/share/curtin/curtin.png Graphic file (type png)
<use /opt/local/share/curtin/curtin.png>
Package pdftex.def Info: /opt/local/share/curtin/curtin.png  used on input line
 390.
(pdftex.def)             Requested size: 80.80307pt x 14.0527pt.
 [47

]
File: /opt/local/share/curtin/curtin.png Graphic file (type png)
<use /opt/local/share/curtin/curtin.png>
Package pdftex.def Info: /opt/local/share/curtin/curtin.png  used on input line
 404.
(pdftex.def)             Requested size: 80.80307pt x 14.0527pt.
 [48

]
File: /opt/local/share/curtin/curtin.png Graphic file (type png)
<use /opt/local/share/curtin/curtin.png>
Package pdftex.def Info: /opt/local/share/curtin/curtin.png  used on input line
 415.
(pdftex.def)             Requested size: 80.80307pt x 14.0527pt.
 [49

]
File: /opt/local/share/curtin/curtin.png Graphic file (type png)
<use /opt/local/share/curtin/curtin.png>
Package pdftex.def Info: /opt/local/share/curtin/curtin.png  used on input line
 431.
(pdftex.def)             Requested size: 80.80307pt x 14.0527pt.
 [50

]
File: /opt/local/share/curtin/curtin.png Graphic file (type png)
<use /opt/local/share/curtin/curtin.png>
Package pdftex.def Info: /opt/local/share/curtin/curtin.png  used on input line
 446.
(pdftex.def)             Requested size: 80.80307pt x 14.0527pt.
 [51

]
<../pics/sleep.jpg, id=376, 276.03125pt x 183.68625pt>
File: ../pics/sleep.jpg Graphic file (type jpg)
<use ../pics/sleep.jpg>
Package pdftex.def Info: ../pics/sleep.jpg  used on input line 465.
(pdftex.def)             Requested size: 138.01527pt x 91.84288pt.
File: /opt/local/share/curtin/curtin.png Graphic file (type png)
<use /opt/local/share/curtin/curtin.png>
Package pdftex.def Info: /opt/local/share/curtin/curtin.png  used on input line
 465.
(pdftex.def)             Requested size: 80.80307pt x 14.0527pt.

[52

 <../pics/sleep.jpg>]
File: ../pics/sleep.jpg Graphic file (type jpg)
<use ../pics/sleep.jpg>
Package pdftex.def Info: ../pics/sleep.jpg  used on input line 465.
(pdftex.def)             Requested size: 138.01527pt x 91.84288pt.
File: /opt/local/share/curtin/curtin.png Graphic file (type png)
<use /opt/local/share/curtin/curtin.png>
Package pdftex.def Info: /opt/local/share/curtin/curtin.png  used on input line
 465.
(pdftex.def)             Requested size: 80.80307pt x 14.0527pt.
 [53

]
\tf@nav=\write6
\openout6 = `DA_prob.nav'.

\tf@toc=\write7
\openout7 = `DA_prob.toc'.

\tf@snm=\write8
\openout8 = `DA_prob.snm'.

Package atveryend Info: Empty hook `BeforeClearDocument' on input line 466.
Package atveryend Info: Empty hook `AfterLastShipout' on input line 466.
 (./DA_prob.aux)
Package atveryend Info: Executing hook `AtVeryEndDocument' on input line 466.
Package atveryend Info: Executing hook `AtEndAfterFileList' on input line 466.
Package rerunfilecheck Info: File `DA_prob.out' has not changed.
(rerunfilecheck)             Checksum: D41D8CD98F00B204E9800998ECF8427E;0.
 ) 
Here is how much of TeX's memory you used:
 17741 strings out of 493731
 330605 string characters out of 6152120
 412689 words of memory out of 5000000
 20977 multiletter control sequences out of 15000+600000
 13638 words of font info for 51 fonts, out of 8000000 for 9000
 430 hyphenation exceptions out of 8191
 48i,16n,51p,800b,603s stack positions out of 5000i,500n,10000p,200000b,80000s
</opt/local/share/texmf-texlive/fonts/type1/public/amsfonts/cm/cmex10.pfb></o
pt/local/share/texmf-texlive/fonts/type1/public/amsfonts/cmextra/cmex9.pfb></op
t/local/share/texmf-texlive/fonts/type1/public/amsfonts/cm/cmmi10.pfb></opt/loc
al/share/texmf-texlive/fonts/type1/public/amsfonts/cm/cmmi7.pfb></opt/local/sha
re/texmf-texlive/fonts/type1/public/amsfonts/cm/cmmi9.pfb></opt/local/share/tex
mf-texlive/fonts/type1/public/amsfonts/cm/cmss10.pfb></opt/local/share/texmf-te
xlive/fonts/type1/public/amsfonts/cm/cmss12.pfb></opt/local/share/texmf-texlive
/fonts/type1/public/amsfonts/cm/cmss8.pfb></opt/local/share/texmf-texlive/fonts
/type1/public/amsfonts/cm/cmss9.pfb></opt/local/share/texmf-texlive/fonts/type1
/public/amsfonts/cm/cmssi10.pfb></opt/local/share/texmf-texlive/fonts/type1/pub
lic/amsfonts/cm/cmssi12.pfb></opt/local/share/texmf-texlive/fonts/type1/public/
amsfonts/cm/cmssi8.pfb></opt/local/share/texmf-texlive/fonts/type1/public/amsfo
nts/cm/cmssi9.pfb></opt/local/share/texmf-texlive/fonts/type1/public/amsfonts/c
m/cmsy10.pfb></opt/local/share/texmf-texlive/fonts/type1/public/amsfonts/cm/cms
y9.pfb></opt/local/share/texmf-texlive/fonts/type1/public/amsfonts/symbols/msam
10.pfb></opt/local/share/texmf-texlive/fonts/type1/public/amsfonts/symbols/msbm
10.pfb>
Output written on DA_prob.pdf (53 pages, 2849655 bytes).
PDF statistics:
 467 PDF objects out of 1000 (max. 8388607)
 334 compressed objects within 4 object streams
 107 named destinations out of 1000 (max. 500000)
 78 words of extra memory for PDF output out of 10000 (max. 10000000)

