\relax 
\providecommand\hyper@newdestlabel[2]{}
\providecommand\HyperFirstAtBeginDocument{\AtBeginDocument}
\HyperFirstAtBeginDocument{\ifx\hyper@anchor\@undefined
\global\let\oldcontentsline\contentsline
\gdef\contentsline#1#2#3#4{\oldcontentsline{#1}{#2}{#3}}
\global\let\oldnewlabel\newlabel
\gdef\newlabel#1#2{\newlabelxx{#1}#2}
\gdef\newlabelxx#1#2#3#4#5#6{\oldnewlabel{#1}{{#2}{#3}}}
\AtEndDocument{\ifx\hyper@anchor\@undefined
\let\contentsline\oldcontentsline
\let\newlabel\oldnewlabel
\fi}
\fi}
\global\let\hyper@last\relax 
\gdef\HyperFirstAtBeginDocument#1{#1}
\providecommand\HyField@AuxAddToFields[1]{}
\providecommand\HyField@AuxAddToCoFields[2]{}
\@writefile{nav}{\headcommand {\slideentry {0}{0}{1}{1/1}{}{0}}}
\@writefile{nav}{\headcommand {\beamer@framepages {1}{1}}}
\@writefile{nav}{\headcommand {\slideentry {0}{0}{2}{2/2}{}{0}}}
\@writefile{nav}{\headcommand {\beamer@framepages {2}{2}}}
\@writefile{nav}{\headcommand {\slideentry {0}{0}{3}{3/3}{}{0}}}
\@writefile{nav}{\headcommand {\beamer@framepages {3}{3}}}
\@writefile{nav}{\headcommand {\slideentry {0}{0}{4}{4/4}{}{0}}}
\@writefile{nav}{\headcommand {\beamer@framepages {4}{4}}}
\@writefile{nav}{\headcommand {\slideentry {0}{0}{5}{5/6}{}{0}}}
\@writefile{nav}{\headcommand {\beamer@framepages {5}{6}}}
\@writefile{nav}{\headcommand {\slideentry {0}{0}{6}{7/10}{}{0}}}
\@writefile{nav}{\headcommand {\beamer@framepages {7}{10}}}
\@writefile{nav}{\headcommand {\slideentry {0}{0}{7}{11/11}{}{0}}}
\@writefile{nav}{\headcommand {\beamer@framepages {11}{11}}}
\@writefile{nav}{\headcommand {\slideentry {0}{0}{8}{12/16}{}{0}}}
\@writefile{nav}{\headcommand {\beamer@framepages {12}{16}}}
\@writefile{nav}{\headcommand {\slideentry {0}{0}{9}{17/18}{}{0}}}
\@writefile{nav}{\headcommand {\beamer@framepages {17}{18}}}
\@writefile{nav}{\headcommand {\slideentry {0}{0}{10}{19/20}{}{0}}}
\@writefile{nav}{\headcommand {\beamer@framepages {19}{20}}}
\@writefile{nav}{\headcommand {\slideentry {0}{0}{11}{21/22}{}{0}}}
\@writefile{nav}{\headcommand {\beamer@framepages {21}{22}}}
\@writefile{nav}{\headcommand {\slideentry {0}{0}{12}{23/27}{}{0}}}
\@writefile{nav}{\headcommand {\beamer@framepages {23}{27}}}
\@writefile{nav}{\headcommand {\slideentry {0}{0}{13}{28/28}{}{0}}}
\@writefile{nav}{\headcommand {\beamer@framepages {28}{28}}}
\@writefile{nav}{\headcommand {\slideentry {0}{0}{14}{29/29}{}{0}}}
\@writefile{nav}{\headcommand {\beamer@framepages {29}{29}}}
\@writefile{nav}{\headcommand {\slideentry {0}{0}{15}{30/30}{}{0}}}
\@writefile{nav}{\headcommand {\beamer@framepages {30}{30}}}
\@writefile{nav}{\headcommand {\slideentry {0}{0}{16}{31/32}{}{0}}}
\@writefile{nav}{\headcommand {\beamer@framepages {31}{32}}}
\@writefile{nav}{\headcommand {\slideentry {0}{0}{17}{33/33}{}{0}}}
\@writefile{nav}{\headcommand {\beamer@framepages {33}{33}}}
\@writefile{nav}{\headcommand {\slideentry {0}{0}{18}{34/34}{}{0}}}
\@writefile{nav}{\headcommand {\beamer@framepages {34}{34}}}
\@writefile{nav}{\headcommand {\beamer@partpages {1}{34}}}
\@writefile{nav}{\headcommand {\beamer@subsectionpages {1}{34}}}
\@writefile{nav}{\headcommand {\beamer@sectionpages {1}{34}}}
\@writefile{nav}{\headcommand {\beamer@documentpages {34}}}
\@writefile{nav}{\headcommand {\gdef \inserttotalframenumber {18}}}
