\headcommand {\slideentry {0}{0}{1}{1/1}{}{0}}
\headcommand {\beamer@framepages {1}{1}}
\headcommand {\slideentry {0}{0}{2}{2/2}{}{0}}
\headcommand {\beamer@framepages {2}{2}}
\headcommand {\slideentry {0}{0}{3}{3/3}{}{0}}
\headcommand {\beamer@framepages {3}{3}}
\headcommand {\slideentry {0}{0}{4}{4/4}{}{0}}
\headcommand {\beamer@framepages {4}{4}}
\headcommand {\slideentry {0}{0}{5}{5/6}{}{0}}
\headcommand {\beamer@framepages {5}{6}}
\headcommand {\slideentry {0}{0}{6}{7/10}{}{0}}
\headcommand {\beamer@framepages {7}{10}}
\headcommand {\slideentry {0}{0}{7}{11/11}{}{0}}
\headcommand {\beamer@framepages {11}{11}}
\headcommand {\slideentry {0}{0}{8}{12/16}{}{0}}
\headcommand {\beamer@framepages {12}{16}}
\headcommand {\slideentry {0}{0}{9}{17/18}{}{0}}
\headcommand {\beamer@framepages {17}{18}}
\headcommand {\slideentry {0}{0}{10}{19/20}{}{0}}
\headcommand {\beamer@framepages {19}{20}}
\headcommand {\slideentry {0}{0}{11}{21/22}{}{0}}
\headcommand {\beamer@framepages {21}{22}}
\headcommand {\slideentry {0}{0}{12}{23/27}{}{0}}
\headcommand {\beamer@framepages {23}{27}}
\headcommand {\slideentry {0}{0}{13}{28/28}{}{0}}
\headcommand {\beamer@framepages {28}{28}}
\headcommand {\slideentry {0}{0}{14}{29/29}{}{0}}
\headcommand {\beamer@framepages {29}{29}}
\headcommand {\slideentry {0}{0}{15}{30/30}{}{0}}
\headcommand {\beamer@framepages {30}{30}}
\headcommand {\slideentry {0}{0}{16}{31/32}{}{0}}
\headcommand {\beamer@framepages {31}{32}}
\headcommand {\slideentry {0}{0}{17}{33/33}{}{0}}
\headcommand {\beamer@framepages {33}{33}}
\headcommand {\slideentry {0}{0}{18}{34/34}{}{0}}
\headcommand {\beamer@framepages {34}{34}}
\headcommand {\beamer@partpages {1}{34}}
\headcommand {\beamer@subsectionpages {1}{34}}
\headcommand {\beamer@sectionpages {1}{34}}
\headcommand {\beamer@documentpages {34}}
\headcommand {\gdef \inserttotalframenumber {18}}
